{"prop_button":{"adc_1":{"ts":"2015-09-08T22:56:43.758Z","value":1.2345},"adc_2":{"ts":"2015-09-08T22
:56:18.76Z","value":1.2345},"cnt_1":{"ts":"2015-09-15T09:16:18.094Z","value":151},"cnt_2":{"ts":"2015-09-15T09
:17:03.107Z","value":15},"cnt_3":{"ts":"2015-09-15T09:17:12.371Z","value":3},"din_1":{"ts":"2015-09-15T09
:17:40.551Z","value":1},"din_2":{"ts":"2015-09-15T09:18:02.495Z","value":1},"led":{"ts":"2015-09-16T02
:06:45.528Z","value":1},"opto_1":{"ts":"2015-09-22T01:45:31.848Z","value":1},"opto_2":{"ts":"2015-09-10T06
:49:37.872Z","value":-1},"relay":{"ts":"2015-09-10T06:49:57.17Z","value":-1}},"prop_view":{"adc_1":{"ts"
:"2015-09-08T22:56:43.758Z","value":1.2345},"adc_2":{"ts":"2015-09-08T22:56:18.76Z","value":1.2345},"cnt_1"
:{"ts":"2015-09-15T09:16:18.094Z","value":151},"cnt_2":{"ts":"2015-09-15T09:17:03.107Z","value":15},"cnt_3"
:{"ts":"2015-09-15T09:17:12.371Z","value":3},"din_1":{"ts":"2015-09-15T09:17:40.551Z","value":1},"din_2"
:{"ts":"2015-09-15T09:18:02.495Z","value":1},"led":{"ts":"2015-09-16T02:06:45.528Z","value":1},"opto_1"
:{"ts":"2015-09-22T01:45:31.848Z","value":1},"opto_2":{"ts":"2015-09-10T06:49:37.872Z","value":-1},"relay"
:{"ts":"2015-09-10T06:49:57.17Z","value":-1}}}